{
  "query": {
    "bool": {
      "must": [
        { "match": { "source": "whosonfirst" } },
        {
          "match": {
            "_type": "dependency"
          }
        }
      ]
    }
  }
}
